[
	{	
		"Start": "2017-12-24T8:30:00",
		"End": "2017-12-24T10:00:00",
		"SubjectId": "4"	
	},
	{	
		"Start": "20171224 10:10",
		"End": "20171224 11:40",
		"SubjectId": "5"	
	},
	{	
		"Start": "20171224 11:50",
		"End": "20171224 15:20",
		"SubjectId": "6"		
	},
	{	
		"Start": "20171225 8:30",
		"End": "20171225 10:00",
		"SubjectId": "4"	
	},
	{	
		"Start": "20171225 10:10",
		"End": "20171225 11:40",
		"SubjectId": "5"	
	},
	{	
		"Start": "20171225 11:50",
		"End": "20171225 15:20",
		"SubjectId": "6"		
	}
]